{
    "chapters" : [
        {
              "id" : 1,
              "title" : "Chương 1",
              "description" : "Đây là chương 1",
              "subChapters" : [
                   {
                       "id" : 1,
                       "title" : "Bài 1",
                       "description" : "Lorem ipsum dolor sit er elit lamet, consectetaur cillium adipisicing pecu, sed do eiusmod tempor ",
                       "questions" : [
                                  {
                                        "id" : 1,
                                      "detail" : "<label><b>Given the following state transition table Which of the test cases below will cover the following series of state transitions? S1 SO S1 S2 SO</b> <img src='istqb.jpg'> </label>",
                                        "answers" : [
                                               {"detail" : "Answer 1", "isCorrect" : 0},
                                               {"detail" : "Answer 2", "isCorrect" : 1},
                                               {"detail" : "Answer 3", "isCorrect" : 0},
                                               {"detail" : "Answer 4", "isCorrect" : 0}
                                        ]
                                  },
                                  {
                                       "id" : 2,
                                       "detail" : "ASSDSDSDSD",
                                       "answers" : [
                                                {"detail" : "Answer 1", "isCorrect" : 0},
                                                {"detail" : "Answer 2", "isCorrect" : 1},
                                                {"detail" : "Answer 3", "isCorrect" : 0},
                                                {"detail" : "Answer 4", "isCorrect" : 0}
                                        ]
                                  }
                       ]
                  },
                   {
                       "id" : 2,
                       "title" : "Bài 2",
                       "description" : "Lorem ipsum dolor sit er elit lamet, consectetaur cillium adipisicing pecu, sed do eiusmod tempor ",
                       "questions" : [
                                  {
                                      "id" : 1,
                                      "detail" : "ASSDSDSDSD",
                                      "answers" : [
                                               {"detail" : "Answer A", "isCorrect" : 0},
                                               {"detail" : "Answer B", "isCorrect" : 1},
                                               {"detail" : "Answer C", "isCorrect" : 0},
                                               {"detail" : "Answer D", "isCorrect" : 0}
                                               ]
                                  },
                                  {
                                  "id" : 2,
                                  "detail" : "ASSDSDSDSD",
                                  "answers" : [
                                               {"detail" : "Answer 1", "isCorrect" : 0},
                                               {"detail" : "Answer 2", "isCorrect" : 1},
                                               {"detail" : "Answer 3", "isCorrect" : 0},
                                               {"detail" : "Answer 4", "isCorrect" : 0}
                                               ]
                                  }
                      ]
                   }
            ]
        },
          {
          "id" : 2,
          "title" : "Chương 2",
          "description" : "Đây là chương 2",
          "subChapters" : [
                           {
                           "id" : 1,
                           "title" : "Bài 1",
                           "description" : "Đây là bài 1Lorem ipsum dolor sit er elit lamet, consectetaur cillium adipisicing pecu, sed do eiusmod tempor ",
                           "questions" : [
                                          {
                                          "id" : 1,
                                          "detail" : "ASSDSDSDSD",
                                          "answers" : [
                                                       {"detail" : "Answer 1", "isCorrect" : 0},
                                                       {"detail" : "Answer 2", "isCorrect" : 1},
                                                       {"detail" : "Answer 3", "isCorrect" : 0},
                                                       {"detail" : "Answer 4", "isCorrect" : 0}
                                                       ]
                                          },
                                          {
                                          "id" : 2,
                                          "detail" : "ASSDSDSDSD",
                                          "answers" : [
                                                       {"detail" : "Answer 1", "isCorrect" : 0},
                                                       {"detail" : "Answer 2", "isCorrect" : 1},
                                                       {"detail" : "Answer 3", "isCorrect" : 0},
                                                       {"detail" : "Answer 4", "isCorrect" : 0}
                                                       ]
                                          }
                                          ]
                           },
                           {
                           "id" : 2,
                           "title" : "Bài 2",
                           "description" : "Lorem ipsum dolor sit er elit lamet, consectetaur cillium adipisicing pecu, sed do eiusmod tempor ",
                           "questions" : [
                                          {
                                          "id" : 1,
                                          "detail" : "ASSDSDSDSD",
                                          "answers" : [
                                                       {"detail" : "Answer 1", "isCorrect" : 0},
                                                       {"detail" : "Answer 2", "isCorrect" : 1},
                                                       {"detail" : "Answer 3", "isCorrect" : 0},
                                                       {"detail" : "Answer 4", "isCorrect" : 0}
                                                       ]
                                          },
                                          {
                                          "id" : 2,
                                          "detail" : "ASSDSDSDSD",
                                          "answers" : [
                                                       {"detail" : "Answer 1", "isCorrect" : 0},
                                                       {"detail" : "Answer 2", "isCorrect" : 1},
                                                       {"detail" : "Answer 3", "isCorrect" : 0},
                                                       {"detail" : "Answer 4", "isCorrect" : 0}
                                                       ]
                                          }
                                          ]
                           }
                           ]
          },
          {
          "id" : 3,
          "title" : "Chương 3",
          "description" : "Đây là chương 3",
          "subChapters" : [
                           {
                           "id" : 1,
                           "title" : "Bài 1",
                           "description" : "Lorem ipsum dolor sit er elit lamet, consectetaur cillium adipisicing pecu, sed do eiusmod tempor ",
                           "questions" : [
                                          {
                                          "id" : 1,
                                          "detail" : "ASSDSDSDSD",
                                          "answers" : [
                                                       {"detail" : "Answer 1", "isCorrect" : 0},
                                                       {"detail" : "Answer 2", "isCorrect" : 1},
                                                       {"detail" : "Answer 3", "isCorrect" : 0},
                                                       {"detail" : "Answer 4", "isCorrect" : 0}
                                                       ]
                                          },
                                          {
                                          "id" : 2,
                                          "detail" : "ASSDSDSDSD",
                                          "answers" : [
                                                       {"detail" : "Answer 1", "isCorrect" : 0},
                                                       {"detail" : "Answer 2", "isCorrect" : 1},
                                                       {"detail" : "Answer 3", "isCorrect" : 0},
                                                       {"detail" : "Answer 4", "isCorrect" : 0}
                                                       ]
                                          }
                                          ]
                           },
                           {
                           "id" : 2,
                           "title" : "Bài 2",
                           "description" : "Lorem ipsum dolor sit er elit lamet, consectetaur cillium adipisicing pecu, sed do eiusmod tempor ",
                           "questions" : [
                                          {
                                          "id" : 1,
                                          "detail" : "ASSDSDSDSD",
                                          "answers" : [
                                                       {"detail" : "Answer 1", "isCorrect" : 0},
                                                       {"detail" : "Answer 2", "isCorrect" : 1},
                                                       {"detail" : "Answer 3", "isCorrect" : 0},
                                                       {"detail" : "Answer 4", "isCorrect" : 0}
                                                       ]
                                          },
                                          {
                                          "id" : 2,
                                          "detail" : "ASSDSDSDSD",
                                          "answers" : [
                                                       {"detail" : "Answer 1", "isCorrect" : 0},
                                                       {"detail" : "Answer 2", "isCorrect" : 1},
                                                       {"detail" : "Answer 3", "isCorrect" : 0},
                                                       {"detail" : "Answer 4", "isCorrect" : 0}
                                                       ]
                                          }
                                          ]
                           },
                           {
                           "id" : 3,
                           "title" : "Bài 3",
                           "description" : "Lorem ipsum dolor sit er elit lamet, consectetaur cillium adipisicing pecu, sed do eiusmod tempor ",
                           "questions" : [
                                          {
                                          "id" : 1,
                                          "detail" : "ASSDSDSDSD",
                                          "answers" : [
                                                       {"detail" : "Answer 1", "isCorrect" : 0},
                                                       {"detail" : "Answer 2", "isCorrect" : 1},
                                                       {"detail" : "Answer 3", "isCorrect" : 0},
                                                       {"detail" : "Answer 4", "isCorrect" : 0}
                                                       ]
                                          },
                                          {
                                          "id" : 2,
                                          "detail" : "ASSDSDSDSD",
                                          "answers" : [
                                                       {"detail" : "Answer 1", "isCorrect" : 0},
                                                       {"detail" : "Answer 2", "isCorrect" : 1},
                                                       {"detail" : "Answer 3", "isCorrect" : 0},
                                                       {"detail" : "Answer 4", "isCorrect" : 0}
                                                       ]
                                          }
                                          ]
                           }
                           ]
          }
    ]
}